-----BEGIN PGP SIGNED MESSAGE-----
Hash: SHA1

# The files in this set are designed to be used to convert to other formats. See
# http://paratext.org/about/usfm for information about the format.
# ___
# You may use the sha256sum and gpg programs to verify the integrity of the text in this archive.
# Use sha256sum -c to check each of the files listed below. http://en.wikipedia.org/wiki/SHA-2
# The sha256sum program is a Linux core program and is available in Cygwin for Windows. http://cygwin.com
# Use Gnu Privacy Guard to check that this file has not been altered. http://gnupg.org/
# The public key to use to verify this signature is at http://eBible.org/web/keys.asc for you to
# import into your gpg keyring before verifying this signature with gpg.
# Updates and revisions of redistributable texts are posted at https://eBible.org/Scriptures/ and
# ftp://eBible.org/pub/Scriptures/.
# Digitally signed 2020-08-30 04:28
2ca4c630eb6692fb2dab9c134ab8279bcb4947ddec0cf7ca169c5805915dba08  00-FRTeng-asv.usfm
c18ae8375ff68c0a5c8a98af19a63c85ee3a6445a2097ff49bfeed06d31b8cb0  01-INTeng-asv.usfm
dbd3329b7b0b81ef6b47591c7e1f7177f8c7d49c4e7ec604f62ba7f40cc361ed  02-GENeng-asv.usfm
9f16e252402385d868807893a8275c7b5dd7b8ffc092773ed72ca19d910fd88a  03-EXOeng-asv.usfm
19ec15cc3c75e2e8656eed4b70c4f6c8af529315f703776d5bae7a1787fa1cc8  04-LEVeng-asv.usfm
3fd2a29e932e60f611dcd77d664324f030469cd1da98eab891e0042a40ec2d3b  05-NUMeng-asv.usfm
83ba3bd8193a5a38e79f36318e98dfae7e5ce298839291f7a26cc1b41a073296  06-DEUeng-asv.usfm
525ddbd732b5f07d8559981a2f6499c21fe969ffa3272e7610b511ff2d66c360  07-JOSeng-asv.usfm
9f3afcbc142bbeb89ceecd5e8e9dd0120c36d2ec6dcc3d15e06c3033a600d1d3  08-JDGeng-asv.usfm
d2a06957c56da578e945c5092bc96919cbbf6a14ebdf09c7bea651d2e4818110  09-RUTeng-asv.usfm
019f85ecf5bc4df2b57635a852c87e5e630dcde8391c017ad34905c8e1b988b1  10-1SAeng-asv.usfm
9ff63b8be0c7b819abc1a6662a1f57074b09ca725311ac3fd8b58a532de58c44  11-2SAeng-asv.usfm
8d3b5cebfce32ba17369af1e551a5de270d8ae9cf59674a96c9cf0d156376387  12-1KIeng-asv.usfm
24468b640ff73c04a3a7bda393800660f1bc82681a3ecee2fdfbcd57551d2d89  13-2KIeng-asv.usfm
7526de3156b08fa4d48c45cf2135b91737775e472d6348c8d8bb22fa27417293  14-1CHeng-asv.usfm
13753735ce497e14d4c3d8acec0718f931d76334c16472833f54e7e1559d8949  15-2CHeng-asv.usfm
4311cd0c5ebfb9fe51e6e452fcdec125ff9f993a41182a237d3cb401b815140b  16-EZReng-asv.usfm
4ae0b57ff1b3833c3127a71e8bf058136b2f7d20c94b70f7d8954c08944a849b  17-NEHeng-asv.usfm
4e9df743461515b0cbbf2c04e5d3994e2c218ef00b843109de243503fda2f90a  18-ESTeng-asv.usfm
8318b87c610770d1e7c8371cd98bc66a3e4d5dc774f6e64c3047ae7f80f5be89  19-JOBeng-asv.usfm
da5d0a53202c40d57e8a3d29016b7f42bee87a8c55798a91ca7b5ae065739dcd  20-PSAeng-asv.usfm
c332d32d043a9e4868c4881a6006164a28d55a36f76ab77fc62f58d882bd7883  21-PROeng-asv.usfm
d3f2676b65ffc663c7a998590e5b63436c248d4a0c134d3c24865fdf01028290  22-ECCeng-asv.usfm
ba2f5119282ab32fb2650860f0ddf5c035452cf2fefd0dc9f41edb6f77a6d536  23-SNGeng-asv.usfm
08901e1db8815760ac57b31faf6c69df9f44fa0931b808852e97dcbf30e89200  24-ISAeng-asv.usfm
003fc5e90f6c08034d46cd924179aff2b43455ce7e8312db6d23331a11c22815  25-JEReng-asv.usfm
f5cd115cc5a52f8a5fe90df6fb7942a99343a4f79025efcbfca5becefd780c86  26-LAMeng-asv.usfm
046f6981022928928404f9be8639af40e9783be415e43b688e2a63b0b160b435  27-EZKeng-asv.usfm
79f067eb1797e65e54eb534a23d301ada35ef3142323acf6be1213adbd28a2cd  28-DANeng-asv.usfm
1e44c6acf8e444da751aa9d1dc26862804e83ab3e103acce5b46c2c98ceac088  29-HOSeng-asv.usfm
2f8943f044839df942b3d831fd66f4287fa6ce82c5006369c5b69b944a716755  30-JOLeng-asv.usfm
60d73eb074e733ccceb3a8446372a204584dfa70c0dff68d00964b473e1cf0f6  31-AMOeng-asv.usfm
aeb5b014375d6efda8ed41c59d1841397ad63d683ad6657c12377361cfb1a7a9  32-OBAeng-asv.usfm
93ed184b6e8fe9e362661487250bfbcccb6562515d9d49823383c5d6966f368f  33-JONeng-asv.usfm
5b4199e5353917b83b279c877b3d0900739822d33ed12488d185cc32f07fc1ea  34-MICeng-asv.usfm
5ac20391f5b413e2eb4c6d95d3665d4a4a8130e90bc4cfff16e1ae90da682485  35-NAMeng-asv.usfm
27f8b3e6fec856edcf31cccc3ce75b0282eb21944c0240f652e7b6ac7f6218e0  36-HABeng-asv.usfm
bc1e1ac534419b7d4448e3a62fb7482c0bf47dca16f592c006e52528daa788f1  37-ZEPeng-asv.usfm
b0c4420f9630df241b73a3b5042fdecd384991584159b4a0d2935ef96d22ece6  38-HAGeng-asv.usfm
920c21f45233cee8226cff4be2b71727fe368661c64c776621250dff8b72d8a0  39-ZECeng-asv.usfm
19c0a4a1bab9bda65532fca0740815bc1f75374c612b8f1c107e63bb39c7b86a  40-MALeng-asv.usfm
e491e2508482b9c1f321115664de301d157877260d79a1902f7f7c82f9e240f3  70-MATeng-asv.usfm
f06ad438adae62d55fead590f2c81ffc66305f071730cb97fefdb3490e32901f  71-MRKeng-asv.usfm
a0e110e97c93e56fc861a0f47acccc99b02d9f3a6aed67ee378feea7390e1287  72-LUKeng-asv.usfm
43ee584cef1373f9881723326c19dde6c186f5dabb7d40838dbe85892069cc2d  73-JHNeng-asv.usfm
0ed0b621710c4968fc58a20cc8219df3edd16720cbbe2551b0e0e90bdb821640  74-ACTeng-asv.usfm
a6c2af71a4914a3ef89bc7d1c0c6d90afeab2579f5cbd59e57ab8baf816dcb74  75-ROMeng-asv.usfm
28d5cf1bef1cdbc57a95f8bcaaafb0fe880e3d5d80ff4e8c4e313330bb3ecef6  76-1COeng-asv.usfm
da7f81edac47ac6749f1526c08164e84556b3114c281f32b70db2e7c20279741  77-2COeng-asv.usfm
431a562a1f049df3aa00977634b3f6a1ff59f98ea99859b0e4fc2665c83ed2c1  78-GALeng-asv.usfm
d8565623d4450ea91818bba4a2203e0fe52c1adae731147b825f9f567d991212  79-EPHeng-asv.usfm
0978dd054c60c447684fd018446b6628e93aa993ddf9c1a3b095284681a6c61a  80-PHPeng-asv.usfm
1b78ae7d4d05c75bb7d4fedb081fb2a0657a4ba246befaae7734df48233f56dd  81-COLeng-asv.usfm
aa27cda1cba36129ca2cc31605dd8855c8dacc1f895cdbc04f4c38b6e5ef39e8  82-1THeng-asv.usfm
947ad33bd525c89097e2902a93aaa31b9c10ecf42cae57866253fa68c1996633  83-2THeng-asv.usfm
51434715c2d536c9c3557c75c5eb68320a44248417cdda5b07513b61223b7359  84-1TIeng-asv.usfm
d6d2a377a056fcf0a5fdcecb1da5ffde50e7685ce752b397db9adb6fb1aa9455  85-2TIeng-asv.usfm
0bfb6bb1d7fe1800b7a2761294fd79e0aa98f902c94feb39498485b178e98310  86-TITeng-asv.usfm
19b2132c5875488edd4435bb9b3b710065d3ce72e0ef574e672f5668f80fe346  87-PHMeng-asv.usfm
994a651a05a115e23552166391ebf337c414ebee082bed5c56b616d403f0814a  88-HEBeng-asv.usfm
314c53be04f6fa38f7621e5f9a3dd4efda96ee71be357b61e0e1035688086820  89-JASeng-asv.usfm
6c246474fcc24652b559dbe1e263beb8d487587ed1a0b4a02721da30452195e7  90-1PEeng-asv.usfm
2ad6aecfe688dd826e58329c47c73c8143a62d3f734ad1d41d7e40a3bc1d8084  91-2PEeng-asv.usfm
2833f4a1ab8965d32dcefae93cb08785e55abd3eadd9d57026b53a4f2ed9757b  92-1JNeng-asv.usfm
feb5eb0ce7ae6df71f1f1e35da98f8b46e8b6451e00045578d73662c40958c46  93-2JNeng-asv.usfm
40f93a5882142a640e0d06bb3caa571f72e2549d967feee4a67400b35fbe826d  94-3JNeng-asv.usfm
44a244ecb481fb59a5396de9a0301455e861eee94aaea7fcf3be477193f0f6c7  95-JUDeng-asv.usfm
ef595d7f0e971e133c33607ab595a2ba7efe489fb9332958f19ea6c4ef7e6bee  96-REVeng-asv.usfm
72b6995ea0242b9ff9b5f34ec7581e828f5e47f3dac7fbd0770ac4e7991258f8  copr.htm
8d4973c2fb26a63760074db8262beeea6ffe5d16a85bd42fea1e4d9e4786be53  latin.css
-----BEGIN PGP SIGNATURE-----
Comment: https://mljohnson.org/gpg.htm https://mljohnson.org/active-keys.asc

iHEEARECADEWIQRU1xTXaVbaZnPcHupfYgCdk1BfJgUCX0sq/xMcZWRpdG9yc0Bl
YmlibGUub3JnAAoJEF9iAJ2TUF8mkRgAnjGHsR9j4x46t/QxwvKIEhryj/wzAJ9I
mgxGfMoWkjri1RpbTkGxfTeqpg==
=9qsc
-----END PGP SIGNATURE-----
